id,name,account_asset_id/id,company_id/id,method,account_expense_depreciation_id/id,account_depreciation_id/id,journal_id/id,account_min_value_id/id,method_time,method_number,method_rate,parent_id/id,method_period,account_plus_value_id/id,prorata,account_residual_value_id/id,account_revaluation_value_id/id
isf_tosa_asset_category_1,LN - Land,isf_tosa_data.1100001,base.main_company,linear,__export__.account_account_434,__export__.account_account_435,__export__.account_journal_29,__export__.account_account_437,year,0,,,Year,isf_tosa_data.4400001,True,isf_tosa_data.1100001,isf_tosa_data.3200001
isf_tosa_asset_category_2,BL - Building & Fixture,isf_tosa_data.1100002,base.main_company,linear,isf_tosa_data.6200001,isf_tosa_data.1100003,__export__.account_journal_29,__export__.account_account_437,year,50,,,Year,isf_tosa_data.4400001,True,isf_tosa_data.1100002,isf_tosa_data.3200001
isf_tosa_asset_category_3,VH - Motor Vehicles & Motor Cycles,isf_tosa_data.1100004,base.main_company,linear,isf_tosa_data.6200002,isf_tosa_data.1100005,__export__.account_journal_29,__export__.account_account_437,rate,,0.375,,Year,isf_tosa_data.4400001,True,isf_tosa_data.1100004,isf_tosa_data.3200001
isf_tosa_asset_category_4,HF - Hospital Furniture,isf_tosa_data.1100006,base.main_company,linear,isf_tosa_data.6200003,isf_tosa_data.1100007,__export__.account_journal_29,__export__.account_account_437,year,8,,,Year,isf_tosa_data.4400001,True,isf_tosa_data.1100006,isf_tosa_data.3200001
isf_tosa_asset_category_5,HE - Hospital Equipment,isf_tosa_data.1100008,base.main_company,linear,isf_tosa_data.6200004,isf_tosa_data.1100009,__export__.account_journal_29,__export__.account_account_437,year,8,,,Year,isf_tosa_data.4400001,True,isf_tosa_data.1100008,isf_tosa_data.3200001
isf_tosa_asset_category_6,IT - IT Systems,isf_tosa_data.1100010,base.main_company,linear,isf_tosa_data.6200005,isf_tosa_data.1100011,__export__.account_journal_29,__export__.account_account_437,rate,,0.375,,Year,isf_tosa_data.4400001,True,isf_tosa_data.1100010,isf_tosa_data.3200001
isf_tosa_asset_category_7,RF - Residential Forniture,isf_tosa_data.1100012,base.main_company,linear,isf_tosa_data.6200006,isf_tosa_data.1100013,__export__.account_journal_29,__export__.account_account_437,year,8,,,Year,isf_tosa_data.4400001,True,isf_tosa_data.1100012,isf_tosa_data.3200001
isf_tosa_asset_category_8,RE - Residential Equipment,isf_tosa_data.1100014,base.main_company,linear,isf_tosa_data.6200007,isf_tosa_data.1100015,__export__.account_journal_29,__export__.account_account_437,year,8,,,Year,isf_tosa_data.4400001,True,isf_tosa_data.1100014,isf_tosa_data.3200001
isf_tosa_asset_category_9,WF - Workshop Forniture,isf_tosa_data.1100016,base.main_company,linear,isf_tosa_data.6200008,isf_tosa_data.1100017,__export__.account_journal_29,__export__.account_account_437,year,8,,,Year,isf_tosa_data.4400001,True,isf_tosa_data.1100016,isf_tosa_data.3200001
isf_tosa_asset_category_10,WE - Workshop Equipment,isf_tosa_data.1100018,base.main_company,linear,isf_tosa_data.6200009,isf_tosa_data.1100019,__export__.account_journal_29,__export__.account_account_437,year,8,,,Year,isf_tosa_data.4400001,True,isf_tosa_data.1100018,isf_tosa_data.3200001
isf_tosa_asset_category_11,WP - Water Treatment Plant,isf_tosa_data.1100020,base.main_company,linear,isf_tosa_data.6200010,isf_tosa_data.1100021,__export__.account_journal_29,__export__.account_account_437,year,8,,,Year,isf_tosa_data.4400001,True,isf_tosa_data.1100020,isf_tosa_data.3200001
isf_tosa_asset_category_12,PP - Power Plant,isf_tosa_data.1100022,base.main_company,linear,isf_tosa_data.6200011,isf_tosa_data.1100023,__export__.account_journal_29,__export__.account_account_437,year,8,,,Year,isf_tosa_data.4400001,True,isf_tosa_data.1100022,isf_tosa_data.3200001
